ResourceId,StartDate,EndDate
640,2021-02-19T21:00:00.000Z,2021-05-16T21:00:00.000Z
649,2022-05-12T21:00:00.000Z,2024-06-24T21:00:00.000Z
608,2022-08-23T21:00:00.000Z,2023-01-25T21:00:00.000Z
684,2021-01-30T21:00:00.000Z,2022-02-09T21:00:00.000Z
620,2022-04-05T21:00:00.000Z,2023-07-25T21:00:00.000Z
992,2022-01-29T21:00:00.000Z,2023-12-14T21:00:00.000Z
639,2022-10-12T21:00:00.000Z,2024-04-15T21:00:00.000Z
299,2021-05-19T21:00:00.000Z,2022-07-31T21:00:00.000Z
815,2022-10-01T21:00:00.000Z,2023-10-20T21:00:00.000Z
182,2021-10-17T21:00:00.000Z,2023-08-10T21:00:00.000Z
784,2021-06-10T21:00:00.000Z,2023-01-03T21:00:00.000Z
445,2021-04-23T21:00:00.000Z,2023-02-04T21:00:00.000Z
12,2022-05-22T21:00:00.000Z,2023-05-15T21:00:00.000Z
44,2020-06-12T21:00:00.000Z,2021-01-05T21:00:00.000Z
156,2020-09-22T21:00:00.000Z,2022-08-08T21:00:00.000Z
940,2021-09-11T21:00:00.000Z,2022-12-12T21:00:00.000Z
68,2021-12-15T21:00:00.000Z,2023-06-08T21:00:00.000Z
98,2020-10-01T21:00:00.000Z,2020-12-08T21:00:00.000Z
767,2020-09-10T21:00:00.000Z,2021-12-31T21:00:00.000Z
847,2021-08-21T21:00:00.000Z,2023-12-10T21:00:00.000Z
454,2020-10-03T21:00:00.000Z,2021-06-29T21:00:00.000Z
360,2020-02-08T21:00:00.000Z,2020-06-02T21:00:00.000Z
42,2020-04-29T21:00:00.000Z,2020-08-28T21:00:00.000Z
792,2022-07-23T21:00:00.000Z,2022-09-02T21:00:00.000Z
839,2020-03-08T21:00:00.000Z,2022-01-31T21:00:00.000Z
893,2021-02-09T21:00:00.000Z,2021-04-21T21:00:00.000Z
246,2022-07-03T21:00:00.000Z,2024-05-06T21:00:00.000Z
422,2021-08-08T21:00:00.000Z,2022-08-19T21:00:00.000Z
252,2021-02-09T21:00:00.000Z,2021-06-28T21:00:00.000Z
445,2020-07-02T21:00:00.000Z,2022-12-16T21:00:00.000Z
85,2020-02-22T21:00:00.000Z,2020-08-13T21:00:00.000Z
651,2021-01-09T21:00:00.000Z,2023-07-22T21:00:00.000Z
224,2021-05-17T21:00:00.000Z,2022-08-14T21:00:00.000Z
244,2022-07-15T21:00:00.000Z,2025-01-13T21:00:00.000Z
981,2020-06-12T21:00:00.000Z,2021-12-08T21:00:00.000Z
778,2020-08-15T21:00:00.000Z,2022-04-28T21:00:00.000Z
792,2022-07-28T21:00:00.000Z,2023-06-28T21:00:00.000Z
302,2022-04-19T21:00:00.000Z,2024-12-13T21:00:00.000Z
295,2022-03-05T21:00:00.000Z,2023-09-28T21:00:00.000Z
390,2022-07-13T21:00:00.000Z,2023-03-16T21:00:00.000Z
213,2021-07-05T21:00:00.000Z,2022-02-14T21:00:00.000Z
848,2022-08-11T21:00:00.000Z,2024-06-22T21:00:00.000Z
928,2021-07-14T21:00:00.000Z,2021-07-31T21:00:00.000Z
373,2022-05-01T21:00:00.000Z,2024-06-30T21:00:00.000Z
741,2020-12-01T21:00:00.000Z,2022-10-09T21:00:00.000Z
825,2021-07-09T21:00:00.000Z,2022-09-01T21:00:00.000Z
940,2022-06-17T21:00:00.000Z,2024-05-26T21:00:00.000Z
968,2022-04-04T21:00:00.000Z,2024-09-05T21:00:00.000Z
234,2021-11-21T21:00:00.000Z,2024-07-27T21:00:00.000Z
498,2021-07-29T21:00:00.000Z,2022-11-11T21:00:00.000Z
142,2022-03-02T21:00:00.000Z,2023-07-06T21:00:00.000Z
863,2021-12-15T21:00:00.000Z,2023-05-19T21:00:00.000Z
709,2021-08-07T21:00:00.000Z,2024-03-04T21:00:00.000Z
230,2021-12-21T21:00:00.000Z,2024-05-16T21:00:00.000Z
892,2021-12-16T21:00:00.000Z,2023-11-10T21:00:00.000Z
16,2020-07-13T21:00:00.000Z,2023-03-05T21:00:00.000Z
123,2020-09-21T21:00:00.000Z,2021-09-08T21:00:00.000Z
20,2021-09-06T21:00:00.000Z,2023-06-28T21:00:00.000Z
124,2022-09-08T21:00:00.000Z,2025-05-20T21:00:00.000Z
147,2021-10-04T21:00:00.000Z,2023-04-01T21:00:00.000Z
464,2022-05-11T21:00:00.000Z,2024-12-14T21:00:00.000Z
367,2021-04-06T21:00:00.000Z,2021-08-29T21:00:00.000Z
795,2022-04-04T21:00:00.000Z,2022-04-05T21:00:00.000Z
780,2021-08-01T21:00:00.000Z,2024-04-16T21:00:00.000Z
227,2022-08-05T21:00:00.000Z,2024-07-11T21:00:00.000Z
788,2021-01-03T21:00:00.000Z,2023-07-02T21:00:00.000Z
481,2022-03-24T21:00:00.000Z,2024-10-27T21:00:00.000Z
607,2020-06-12T21:00:00.000Z,2020-10-02T21:00:00.000Z
820,2022-03-24T21:00:00.000Z,2022-08-01T21:00:00.000Z
470,2020-11-24T21:00:00.000Z,2022-08-22T21:00:00.000Z
60,2020-11-13T21:00:00.000Z,2021-12-16T21:00:00.000Z
306,2022-01-29T21:00:00.000Z,2022-05-07T21:00:00.000Z
664,2020-07-06T21:00:00.000Z,2021-09-24T21:00:00.000Z
60,2022-04-29T21:00:00.000Z,2024-04-17T21:00:00.000Z
611,2021-03-20T21:00:00.000Z,2022-01-12T21:00:00.000Z
642,2021-05-17T21:00:00.000Z,2021-07-14T21:00:00.000Z
893,2020-12-21T21:00:00.000Z,2023-05-24T21:00:00.000Z
805,2021-06-07T21:00:00.000Z,2023-06-25T21:00:00.000Z
395,2020-08-30T21:00:00.000Z,2021-04-16T21:00:00.000Z
744,2022-05-03T21:00:00.000Z,2023-03-20T21:00:00.000Z
964,2022-06-27T21:00:00.000Z,2024-04-06T21:00:00.000Z
29,2021-12-04T21:00:00.000Z,2023-03-18T21:00:00.000Z
755,2022-06-23T21:00:00.000Z,2023-06-28T21:00:00.000Z
899,2022-10-14T21:00:00.000Z,2023-04-21T21:00:00.000Z
302,2020-06-28T21:00:00.000Z,2021-07-24T21:00:00.000Z
143,2022-05-31T21:00:00.000Z,2024-05-28T21:00:00.000Z
249,2020-12-16T21:00:00.000Z,2022-05-06T21:00:00.000Z
330,2021-09-07T21:00:00.000Z,2021-12-23T21:00:00.000Z
895,2020-08-01T21:00:00.000Z,2022-01-08T21:00:00.000Z
292,2022-08-01T21:00:00.000Z,2023-02-16T21:00:00.000Z
800,2021-08-20T21:00:00.000Z,2022-12-26T21:00:00.000Z
472,2021-10-21T21:00:00.000Z,2022-08-19T21:00:00.000Z
372,2021-10-07T21:00:00.000Z,2023-08-26T21:00:00.000Z
600,2022-10-03T21:00:00.000Z,2023-03-20T21:00:00.000Z
296,2020-02-09T21:00:00.000Z,2020-03-17T21:00:00.000Z
948,2022-08-21T21:00:00.000Z,2024-07-05T21:00:00.000Z
822,2021-05-12T21:00:00.000Z,2021-10-23T21:00:00.000Z
828,2020-06-01T21:00:00.000Z,2021-04-02T21:00:00.000Z
873,2021-01-29T21:00:00.000Z,2021-08-17T21:00:00.000Z